name,email
aditya,aditya.sonar@mindstix.com
priya,priya.b@gmail.com
shubham,shbham.chavan@mindstix.com
swapnil,swapnil.k@gmail.com	
amol,amol@gmail.com	
snehal,sn,p@gmail.com
shiva,shiva.t@gmail.com
kabir,kabir.s@gmail.com
